{
	"info": {
		"_postman_id": "ea80c164-6bc0-4009-aaf2-421eae1facbb",
		"name": "poolgame",
		"schema": "https://schema.getpostman.com/json/collection/v2.1.0/collection.json"
	},
	"item": [
		{
			"name": "store user",
			"request": {
				"method": "POST",
				"header": [
					{
						"key": "Accept",
						"value": "application/json",
						"type": "text"
					}
				],
				"body": {
					"mode": "formdata",
					"formdata": [
						{
							"key": "first_name",
							"value": "Padre",
							"type": "text"
						},
						{
							"key": "last_name",
							"value": "Maronno",
							"type": "text"
						},
						{
							"key": "email",
							"value": "padre@maron.no",
							"type": "text"
						},
						{
							"key": "password",
							"value": "Abc123456",
							"type": "text"
						},
						{
							"key": "password_confirmation",
							"value": "Abc123456",
							"type": "text"
						},
						{
							"key": "date_of_birth",
							"value": "2019-12-12",
							"type": "text"
						},
						{
							"key": "privacy",
							"value": "1",
							"type": "text"
						}
					]
				},
				"url": {
					"raw": "http://127.0.0.1:8000/api/users",
					"protocol": "http",
					"host": [
						"127",
						"0",
						"0",
						"1"
					],
					"port": "8000",
					"path": [
						"api",
						"users"
					]
				}
			},
			"response": []
		},
		{
			"name": "store game",
			"request": {
				"method": "POST",
				"header": [
					{
						"key": "Accept",
						"type": "text",
						"value": "application/json"
					}
				],
				"body": {
					"mode": "formdata",
					"formdata": [
						{
							"key": "name",
							"value": "game name 1",
							"type": "text"
						},
						{
							"key": "status",
							"value": "game status 1",
							"type": "text"
						},
						{
							"key": "description",
							"value": "game description 1",
							"type": "text"
						}
					]
				},
				"url": {
					"raw": "http://127.0.0.1:8000/api/games",
					"protocol": "http",
					"host": [
						"127",
						"0",
						"0",
						"1"
					],
					"port": "8000",
					"path": [
						"api",
						"games"
					]
				}
			},
			"response": []
		},
		{
			"name": "login",
			"request": {
				"method": "POST",
				"header": [
					{
						"key": "Accept",
						"value": "application/json",
						"type": "text"
					}
				],
				"body": {
					"mode": "formdata",
					"formdata": [
						{
							"key": "email",
							"value": "padre@maron.no",
							"type": "text"
						},
						{
							"key": "password",
							"value": "Abc123456",
							"type": "text"
						}
					]
				},
				"url": {
					"raw": "http://127.0.0.1:8000/api/auth/login",
					"protocol": "http",
					"host": [
						"127",
						"0",
						"0",
						"1"
					],
					"port": "8000",
					"path": [
						"api",
						"auth",
						"login"
					]
				},
				"description": "A pre-authorized user sends a request for a jwt"
			},
			"response": []
		},
		{
			"name": "show user by id",
			"request": {
				"auth": {
					"type": "bearer",
					"bearer": [
						{
							"key": "token",
							"value": "eyJ0eXAiOiJKV1QiLCJhbGciOiJIUzI1NiJ9.eyJpc3MiOiJodHRwOlwvXC8xMjcuMC4wLjE6ODAwMFwvYXBpXC9hdXRoXC9sb2dpbiIsImlhdCI6MTU0MzQyMDU0MiwiZXhwIjoxNTQzNDI0MTQyLCJuYmYiOjE1NDM0MjA1NDIsImp0aSI6Ik5LMzBTQkMxd1dFVHo0RWwiLCJzdWIiOjEsInBydiI6Ijg3ZTBhZjFlZjlmZDE1ODEyZmRlYzk3MTUzYTE0ZTBiMDQ3NTQ2YWEifQ.ZIObjZvgT7---W_kURm8q1_VoajKOST2ViD6Jmq6-00",
							"type": "string"
						}
					]
				},
				"method": "GET",
				"header": [
					{
						"key": "Accept",
						"type": "text",
						"value": "application/json"
					},
					{
						"key": "Accept-Encoding",
						"type": "text",
						"value": "application/json",
						"disabled": true
					}
				],
				"url": {
					"raw": "http://127.0.0.1:8000/api/users/1",
					"protocol": "http",
					"host": [
						"127",
						"0",
						"0",
						"1"
					],
					"port": "8000",
					"path": [
						"api",
						"users",
						"1"
					]
				},
				"description": "Create new post"
			},
			"response": []
		},
		{
			"name": "show game by id",
			"request": {
				"auth": {
					"type": "bearer",
					"bearer": [
						{
							"key": "token",
							"value": "eyJ0eXAiOiJKV1QiLCJhbGciOiJIUzI1NiJ9.eyJpc3MiOiJodHRwOlwvXC8xMjcuMC4wLjE6ODAwMFwvYXBpXC9hdXRoXC9sb2dpbiIsImlhdCI6MTU0MzQyMDU0MiwiZXhwIjoxNTQzNDI0MTQyLCJuYmYiOjE1NDM0MjA1NDIsImp0aSI6Ik5LMzBTQkMxd1dFVHo0RWwiLCJzdWIiOjEsInBydiI6Ijg3ZTBhZjFlZjlmZDE1ODEyZmRlYzk3MTUzYTE0ZTBiMDQ3NTQ2YWEifQ.ZIObjZvgT7---W_kURm8q1_VoajKOST2ViD6Jmq6-00",
							"type": "string"
						}
					]
				},
				"method": "GET",
				"header": [
					{
						"key": "Accept",
						"type": "text",
						"value": "application/json"
					},
					{
						"key": "Accept-Encoding",
						"type": "text",
						"value": "application/json",
						"disabled": true
					}
				],
				"url": {
					"raw": "http://127.0.0.1:8000/api/games/1",
					"protocol": "http",
					"host": [
						"127",
						"0",
						"0",
						"1"
					],
					"port": "8000",
					"path": [
						"api",
						"games",
						"1"
					]
				},
				"description": "Create new post"
			},
			"response": []
		},
		{
			"name": "search game",
			"request": {
				"method": "GET",
				"header": [],
				"url": {
					"raw": "http://127.0.0.1:8000/api/games/?q=1",
					"protocol": "http",
					"host": [
						"127",
						"0",
						"0",
						"1"
					],
					"port": "8000",
					"path": [
						"api",
						"games",
						""
					],
					"query": [
						{
							"key": "q",
							"value": "1"
						}
					]
				}
			},
			"response": []
		}
	],
	"protocolProfileBehavior": {}
}